/*!
 * Quill Editor v1.3.7
 * https://quilljs.com/
 * Copyright (c) 2014, Jason Chen
 * Copyright (c) 2013, salesforce.com
 */

/**
  * vee-validate v3.4.5
  * (c) 2020 Abdelrahman Awad
  * @license MIT
  */
