/*!
 * Quill Editor v1.3.7
 * https://quilljs.com/
 * Copyright (c) 2014, Jason Chen
 * Copyright (c) 2013, salesforce.com
 */

/*!
 * perfect-scrollbar v1.4.0
 * (c) 2018 Hyunje Jun
 * @license MIT
 */

/**
  * vee-validate v3.4.5
  * (c) 2020 Abdelrahman Awad
  * @license MIT
  */

/**!
 * Sortable 1.10.2
 * @author	RubaXa   <trash@rubaxa.org>
 * @author	owenm    <owen23355@gmail.com>
 * @license MIT
 */
